%YAML 1.1
%TAG !u! tag:unity3d.com,2011:
--- !u!1 &6024685581913687780
GameObject:
  m_ObjectHideFlags: 0
  m_CorrespondingSourceObject: {fileID: 0}
  m_PrefabInstance: {fileID: 0}
  m_PrefabAsset: {fileID: 0}
  serializedVersion: 6
  m_Component:
  - component: {fileID: 96421310682531975}
  m_Layer: 0
  m_Name: CrossedLaser
  m_TagString: Untagged
  m_Icon: {fileID: 0}
  m_NavMeshLayer: 0
  m_StaticEditorFlags: 0
  m_IsActive: 1
--- !u!4 &96421310682531975
Transform:
  m_ObjectHideFlags: 0
  m_CorrespondingSourceObject: {fileID: 0}
  m_PrefabInstance: {fileID: 0}
  m_PrefabAsset: {fileID: 0}
  m_GameObject: {fileID: 6024685581913687780}
  m_LocalRotation: {x: 0, y: 0, z: 0, w: 1}
  m_LocalPosition: {x: 0, y: 0, z: 0}
  m_LocalScale: {x: 1, y: 1, z: 1}
  m_Children:
  - {fileID: 6471251665493829489}
  - {fileID: 8875611191498529918}
  m_Father: {fileID: 0}
  m_RootOrder: 0
  m_LocalEulerAnglesHint: {x: 0, y: 0, z: 0}
--- !u!1001 &6842831902225200270
PrefabInstance:
  m_ObjectHideFlags: 0
  serializedVersion: 2
  m_Modification:
    m_TransformParent: {fileID: 96421310682531975}
    m_Modifications:
    - target: {fileID: 520199045914678259, guid: ec518da162b67bd469e3ebde14b4637e,
        type: 3}
      propertyPath: m_Name
      value: Laser
      objectReference: {fileID: 0}
    - target: {fileID: 520199045914678271, guid: ec518da162b67bd469e3ebde14b4637e,
        type: 3}
      propertyPath: m_LocalPosition.x
      value: 0
      objectReference: {fileID: 0}
    - target: {fileID: 520199045914678271, guid: ec518da162b67bd469e3ebde14b4637e,
        type: 3}
      propertyPath: m_LocalPosition.y
      value: 0
      objectReference: {fileID: 0}
    - target: {fileID: 520199045914678271, guid: ec518da162b67bd469e3ebde14b4637e,
        type: 3}
      propertyPath: m_LocalPosition.z
      value: 0
      objectReference: {fileID: 0}
    - target: {fileID: 520199045914678271, guid: ec518da162b67bd469e3ebde14b4637e,
        type: 3}
      propertyPath: m_LocalRotation.x
      value: 0
      objectReference: {fileID: 0}
    - target: {fileID: 520199045914678271, guid: ec518da162b67bd469e3ebde14b4637e,
        type: 3}
      propertyPath: m_LocalRotation.y
      value: 0
      objectReference: {fileID: 0}
    - target: {fileID: 520199045914678271, guid: ec518da162b67bd469e3ebde14b4637e,
        type: 3}
      propertyPath: m_LocalRotation.z
      value: -0.13052624
      objectReference: {fileID: 0}
    - target: {fileID: 520199045914678271, guid: ec518da162b67bd469e3ebde14b4637e,
        type: 3}
      propertyPath: m_LocalRotation.w
      value: 0.9914449
      objectReference: {fileID: 0}
    - target: {fileID: 520199045914678271, guid: ec518da162b67bd469e3ebde14b4637e,
        type: 3}
      propertyPath: m_RootOrder
      value: 0
      objectReference: {fileID: 0}
    - target: {fileID: 520199045914678271, guid: ec518da162b67bd469e3ebde14b4637e,
        type: 3}
      propertyPath: m_LocalEulerAnglesHint.x
      value: 0
      objectReference: {fileID: 0}
    - target: {fileID: 520199045914678271, guid: ec518da162b67bd469e3ebde14b4637e,
        type: 3}
      propertyPath: m_LocalEulerAnglesHint.y
      value: 0
      objectReference: {fileID: 0}
    - target: {fileID: 520199045914678271, guid: ec518da162b67bd469e3ebde14b4637e,
        type: 3}
      propertyPath: m_LocalEulerAnglesHint.z
      value: -15
      objectReference: {fileID: 0}
    - target: {fileID: 520199045914678256, guid: ec518da162b67bd469e3ebde14b4637e,
        type: 3}
      propertyPath: deathParticle
      value: 
      objectReference: {fileID: 8219505087597727330, guid: b797c87a5da996949a65d65a3521ac5e,
        type: 3}
    m_RemovedComponents: []
  m_SourcePrefab: {fileID: 100100000, guid: ec518da162b67bd469e3ebde14b4637e, type: 3}
--- !u!4 &6471251665493829489 stripped
Transform:
  m_CorrespondingSourceObject: {fileID: 520199045914678271, guid: ec518da162b67bd469e3ebde14b4637e,
    type: 3}
  m_PrefabInstance: {fileID: 6842831902225200270}
  m_PrefabAsset: {fileID: 0}
--- !u!1001 &8940946103818096513
PrefabInstance:
  m_ObjectHideFlags: 0
  serializedVersion: 2
  m_Modification:
    m_TransformParent: {fileID: 96421310682531975}
    m_Modifications:
    - target: {fileID: 520199045914678259, guid: ec518da162b67bd469e3ebde14b4637e,
        type: 3}
      propertyPath: m_Name
      value: Laser (1)
      objectReference: {fileID: 0}
    - target: {fileID: 520199045914678271, guid: ec518da162b67bd469e3ebde14b4637e,
        type: 3}
      propertyPath: m_LocalPosition.x
      value: 0
      objectReference: {fileID: 0}
    - target: {fileID: 520199045914678271, guid: ec518da162b67bd469e3ebde14b4637e,
        type: 3}
      propertyPath: m_LocalPosition.y
      value: 0
      objectReference: {fileID: 0}
    - target: {fileID: 520199045914678271, guid: ec518da162b67bd469e3ebde14b4637e,
        type: 3}
      propertyPath: m_LocalPosition.z
      value: 0
      objectReference: {fileID: 0}
    - target: {fileID: 520199045914678271, guid: ec518da162b67bd469e3ebde14b4637e,
        type: 3}
      propertyPath: m_LocalRotation.x
      value: 0
      objectReference: {fileID: 0}
    - target: {fileID: 520199045914678271, guid: ec518da162b67bd469e3ebde14b4637e,
        type: 3}
      propertyPath: m_LocalRotation.y
      value: 0
      objectReference: {fileID: 0}
    - target: {fileID: 520199045914678271, guid: ec518da162b67bd469e3ebde14b4637e,
        type: 3}
      propertyPath: m_LocalRotation.z
      value: 0.13052616
      objectReference: {fileID: 0}
    - target: {fileID: 520199045914678271, guid: ec518da162b67bd469e3ebde14b4637e,
        type: 3}
      propertyPath: m_LocalRotation.w
      value: 0.9914449
      objectReference: {fileID: 0}
    - target: {fileID: 520199045914678271, guid: ec518da162b67bd469e3ebde14b4637e,
        type: 3}
      propertyPath: m_RootOrder
      value: 1
      objectReference: {fileID: 0}
    - target: {fileID: 520199045914678271, guid: ec518da162b67bd469e3ebde14b4637e,
        type: 3}
      propertyPath: m_LocalEulerAnglesHint.x
      value: 0
      objectReference: {fileID: 0}
    - target: {fileID: 520199045914678271, guid: ec518da162b67bd469e3ebde14b4637e,
        type: 3}
      propertyPath: m_LocalEulerAnglesHint.y
      value: 0
      objectReference: {fileID: 0}
    - target: {fileID: 520199045914678271, guid: ec518da162b67bd469e3ebde14b4637e,
        type: 3}
      propertyPath: m_LocalEulerAnglesHint.z
      value: 15
      objectReference: {fileID: 0}
    - target: {fileID: 520199045914678256, guid: ec518da162b67bd469e3ebde14b4637e,
        type: 3}
      propertyPath: deathParticle
      value: 
      objectReference: {fileID: 8219505087597727330, guid: b797c87a5da996949a65d65a3521ac5e,
        type: 3}
    m_RemovedComponents: []
  m_SourcePrefab: {fileID: 100100000, guid: ec518da162b67bd469e3ebde14b4637e, type: 3}
--- !u!4 &8875611191498529918 stripped
Transform:
  m_CorrespondingSourceObject: {fileID: 520199045914678271, guid: ec518da162b67bd469e3ebde14b4637e,
    type: 3}
  m_PrefabInstance: {fileID: 8940946103818096513}
  m_PrefabAsset: {fileID: 0}
