%YAML 1.1
%TAG !u! tag:unity3d.com,2011:
--- !u!114 &11400000
MonoBehaviour:
  m_ObjectHideFlags: 0
  m_CorrespondingSourceObject: {fileID: 0}
  m_PrefabInstance: {fileID: 0}
  m_PrefabAsset: {fileID: 0}
  m_GameObject: {fileID: 0}
  m_Enabled: 1
  m_EditorHideFlags: 0
  m_Script: {fileID: 11500000, guid: 4caea96cc1c9f9f4d846433e6f2466d5, type: 3}
  m_Name: TrippleLaserShot
  m_EditorClassIdentifier: 
  sequenceType: 0
  randomColorForEachLaser: 0
  laserObjects:
  - {fileID: 11400000, guid: 38df9be21ad8a034c8b16bd200a72c79, type: 2}
  - {fileID: 11400000, guid: 38df9be21ad8a034c8b16bd200a72c79, type: 2}
  - {fileID: 11400000, guid: 38df9be21ad8a034c8b16bd200a72c79, type: 2}
  interval: 0
  angleDeviation: 0
  positionDeviation: {x: 2, y: 2}
