%YAML 1.1
%TAG !u! tag:unity3d.com,2011:
--- !u!114 &11400000
MonoBehaviour:
  m_ObjectHideFlags: 0
  m_CorrespondingSourceObject: {fileID: 0}
  m_PrefabInstance: {fileID: 0}
  m_PrefabAsset: {fileID: 0}
  m_GameObject: {fileID: 0}
  m_Enabled: 1
  m_EditorHideFlags: 0
  m_Script: {fileID: 11500000, guid: 62bb348a0e9934f4a8b7a8bd76c99b56, type: 3}
  m_Name: WholeLaserFast
  m_EditorClassIdentifier: 
  laserPrefab: {fileID: 520199045914678259, guid: ec518da162b67bd469e3ebde14b4637e,
    type: 3}
  laserType: 0
  speed: 4
